<?xml version="1.0" encoding="utf-8"?>
<!-- Generator: Adobe Illustrator 15.0.0, SVG Export Plug-In  -->
<!DOCTYPE svg PUBLIC "-//W3C//DTD SVG 1.1//EN" "http://www.w3.org/Graphics/SVG/1.1/DTD/svg11.dtd" [
	<!ENTITY ns_flows "http://ns.adobe.com/Flows/1.0/">
]>
<svg version="1.1"
	 xmlns="http://www.w3.org/2000/svg" xmlns:xlink="http://www.w3.org/1999/xlink" xmlns:a="http://ns.adobe.com/AdobeSVGViewerExtensions/3.0/"
	 x="0px" y="0px" width="64px" height="61px" viewBox="0 0 64 61" enable-background="new 0 0 64 61" xml:space="preserve">
<defs>
</defs>
<g>
	<defs>
		<rect id="SVGID_1_" width="64" height="60.975"/>
	</defs>
	<clipPath id="SVGID_2_">
		<use xlink:href="#SVGID_1_"  overflow="visible"/>
	</clipPath>
	<path clip-path="url(#SVGID_2_)" fill-rule="evenodd" clip-rule="evenodd" fill="#FFFFFF" d="M49.749,60.975V38.792
		c0-4.548-1.316-9.104-6.672-9.104c-5.357,0-7.596,4.556-7.596,9.214v22.073H21.189V20.356h14.292v5.468
		c3.76-4.777,7.027-6.749,12.951-6.749c5.93,0,15.567,2.766,15.567,18.808v23.092H49.749z M7.982,14.333
		C3.572,14.333,0,11.128,0,7.171C0,3.21,3.572,0,7.982,0c4.406,0,7.978,3.21,7.978,7.171C15.96,11.128,12.388,14.333,7.982,14.333
		 M15.113,60.975H0.798V20.356h14.315V60.975z"/>
</g>
</svg>
