<?xml version="1.0" encoding="utf-8"?>
<!-- Generator: Adobe Illustrator 15.0.0, SVG Export Plug-In . SVG Version: 6.00 Build 0)  -->
<!DOCTYPE svg PUBLIC "-//W3C//DTD SVG 1.1//EN" "http://www.w3.org/Graphics/SVG/1.1/DTD/svg11.dtd">
<svg version="1.1" id="Layer_1" xmlns="http://www.w3.org/2000/svg" xmlns:xlink="http://www.w3.org/1999/xlink" x="0px" y="0px"
	 width="160px" height="160px" viewBox="0 0 160 160" enable-background="new 0 0 160 160" xml:space="preserve">
<g>
	<defs>
		<rect id="SVGID_1_" x="0.29" y="19.419" width="159.42" height="121.161"/>
	</defs>
	<clipPath id="SVGID_2_">
		<use xlink:href="#SVGID_1_"  overflow="visible"/>
	</clipPath>
	<path clip-path="url(#SVGID_2_)" fill="#FFFFFF" d="M62.798,88.331c-1.235,0-2.453-0.416-3.43-1.173L42.265,73.926
		c-1.185-0.916-1.942-2.239-2.131-3.725c-0.19-1.486,0.211-2.956,1.127-4.14l19.93-25.762c1.069-1.382,2.685-2.175,4.435-2.175
		c1.234,0,2.451,0.416,3.428,1.172l17.107,13.232c2.444,1.893,2.894,5.42,1.003,7.864l-19.93,25.762
		C66.166,87.538,64.549,88.331,62.798,88.331 M46.247,69.421l16.482,12.75l19.448-25.138l-16.482-12.75L46.247,69.421z"/>
	<path clip-path="url(#SVGID_2_)" fill="#FFFFFF" d="M94.315,58.224c-1.234,0-2.427-0.405-3.419-1.173
		c-1.31-1.015-1.55-2.899-0.535-4.209c0.933-1.205,2.599-1.505,3.88-0.757l4.477-5.787L71.932,25.576l-4.477,5.786
		c1.046,1.052,1.174,2.743,0.241,3.948c-1.014,1.31-2.897,1.551-4.209,0.536c-2.441-1.891-2.892-5.417-1.005-7.862l4.944-6.39
		c1.89-2.445,5.418-2.896,7.864-1.006l27.412,21.206c2.445,1.893,2.895,5.422,1.002,7.866l-4.941,6.387
		c-0.916,1.184-2.238,1.941-3.724,2.131C94.797,58.208,94.556,58.224,94.315,58.224"/>
	<path clip-path="url(#SVGID_2_)" fill="#FFFFFF" d="M56.558,107.035c-1.198,0.001-2.405-0.381-3.424-1.169l-27.41-21.204
		c-1.185-0.917-1.941-2.239-2.131-3.724c-0.189-1.485,0.211-2.955,1.127-4.14l4.942-6.389c0.916-1.184,2.24-1.941,3.725-2.131
		s2.956,0.211,4.141,1.128c1.309,1.014,1.55,2.899,0.535,4.209c-0.932,1.204-2.6,1.504-3.88,0.757l-4.476,5.785l26.787,20.722
		l4.475-5.785c-1.045-1.052-1.173-2.741-0.241-3.945c1.014-1.312,2.899-1.55,4.209-0.538c1.184,0.917,1.94,2.239,2.131,3.724
		c0.189,1.486-0.211,2.956-1.128,4.141l-4.942,6.39C59.894,106.288,58.235,107.035,56.558,107.035"/>
	<path clip-path="url(#SVGID_2_)" fill="#FFFFFF" d="M144.34,140.581L144.34,140.581c-3.427,0-6.673-1.11-9.389-3.211
		c-2.687-2.077-24.424-22.359-64.61-60.283c-1.123-1.059-1.259-2.797-0.314-4.017l5.171-6.685c0.944-1.221,2.66-1.525,3.968-0.705
		c46.816,29.384,71.909,45.329,74.579,47.394c3.246,2.512,5.319,6.135,5.839,10.205c0.52,4.068-0.577,8.098-3.089,11.342
		C153.564,138.408,149.133,140.581,144.34,140.581 M76.438,74.589c50.786,47.917,60.777,56.946,62.184,58.034
		c1.655,1.28,3.633,1.957,5.719,1.957c2.923,0,5.624-1.324,7.411-3.633c1.529-1.978,2.198-4.432,1.882-6.911
		s-1.58-4.688-3.559-6.217c-1.397-1.081-12.637-8.476-71.793-45.612L76.438,74.589z"/>
	<path clip-path="url(#SVGID_2_)" fill="#FFFFFF" d="M63.913,124.127H19.21c-1.657,0-3-1.343-3-3s1.343-3,3-3h44.703
		c1.657,0,3,1.343,3,3S65.57,124.127,63.913,124.127"/>
	<path clip-path="url(#SVGID_2_)" fill="#FFFFFF" d="M79.834,139.076H3.29c-1.657,0-3-1.343-3-3s1.343-3,3-3h76.544
		c1.657,0,3,1.343,3,3S81.491,139.076,79.834,139.076"/>
</g>
</svg>
